…
“At/Near” values outside the Pacific Northwest may include subjects
apprehended elsewhere and processed by the Seattle ICE Field Office, but
I-213 narratives confirm that most apprehensions represented in the
dataset occurred in the Pacific Northwest.

``` r
i213 %>% count(at_near, sort = TRUE) %>% 
   filter(n >= 20)
```

    ## # A tibble: 41 x 2
    ##    at_near          n
    ##    <chr>        <int>
    ##  1 SEATAC, WA     418
    ##  2 PORTLAND, OR   359
    ##  3 BLAINE, WA     209
    ##  4 SUMAS, WA      169
    ##  5 SALEM, OR      134
    ##  6 EPHRATA, WA    110
    ##  7 EUGENE, OR      98
    ##  8 TACOMA, WA      98
    ##  9 LYNDEN, WA      96
    ## 10 SPOKANE, WA     95
    ## # … with 31 more rows
…
